diff --git a/branches.txt b/branches.txt
deleted file mode 100644
index 2054e02..0000000
--- a/branches.txt
+++ /dev/null
@@ -1,4 +0,0 @@
-* alfa
-  beta
-  gamma
-  main
diff --git a/dgraph.txt b/dgraph.txt
deleted file mode 100644
index a5948b6..0000000
--- a/dgraph.txt
+++ /dev/null
@@ -1,101 +0,0 @@
-* commit 8081c7e5a600d68db5d872b2a3a9dd5165d0d283
-| Author: Bartek Daniluk <bartekx55@gmail.com>
-| Date:   Tue Nov 15 16:39:33 2022 +0100
-| 
-|     graph
-| 
-* commit 06f35cae2d55e316327c5651b24c0089b80161da
-| Author: Bartek Daniluk <bartekx55@gmail.com>
-| Date:   Tue Nov 15 16:36:05 2022 +0100
-| 
-|     aoneline
-| 
-* commit a168d735f390fd0384bf9ee0134579193847251b
-| Author: Bartek Daniluk <bartekx55@gmail.com>
-| Date:   Tue Nov 8 17:29:03 2022 +0100
-| 
-|     aMNO
-| 
-* commit ea9348fb9a7ee5fe6d88df722a74f3d04b93ed0b
-| Author: Bartek Daniluk <bartekx55@gmail.com>
-| Date:   Tue Nov 8 17:22:56 2022 +0100
-| 
-|     aGHI
-| 
-* commit 0ab5ff7c7dc0b20720184ad1fdf4fc16a9fed3f7
-| Author: Bartek Daniluk <bartekx55@gmail.com>
-| Date:   Tue Nov 8 16:54:45 2022 +0100
-| 
-|     DEF  na alfa
-| 
-* commit 148d3f16b0cbac3c2f73a378a7f0b9939470fec9
-| Author: Bartek Daniluk <bartekx55@gmail.com>
-| Date:   Tue Nov 8 16:51:49 2022 +0100
-| 
-|     mbran
-| 
-* commit 7e7e4cd78d302a70ea036c5dcc4646e9f2b7523a
-| Author: Bartek Daniluk <bartekx55@gmail.com>
-| Date:   Tue Nov 8 16:49:20 2022 +0100
-| 
-|     Zadanie do wykladu 4. -start
-| 
-* commit 847eedb54ef271fa8bea6faafe391e8c131487a9
-| Author: Bartek Daniluk <bartekx55@gmail.com>
-| Date:   Mon Nov 7 21:48:04 2022 +0100
-| 
-|     Nowy Plik
-| 
-* commit eee6a722c4888427cff1ff92fe86469ca830433a
-| Author: Bartek Daniluk <bartekx55@gmail.com>
-| Date:   Mon Nov 7 21:27:42 2022 +0100
-| 
-|     dodano merge.txt
-| 
-* commit 24bdeb603a1f473cf3673032d160d1ed8d18b6b8
-| Author: Bartek Daniluk <bartekx55@gmail.com>
-| Date:   Mon Nov 7 21:23:59 2022 +0100
-| 
-|     Ignorowanie
-| 
-* commit d996a29c7e7d7c0d1cfff1181f050115ae321d9d
-| Author: Bartek Daniluk <bartekx55@gmail.com>
-| Date:   Mon Nov 7 21:17:51 2022 +0100
-| 
-|     zaktualizowano prepos.txt
-| 
-* commit 7f25641fc29ef3c1ed8a7f87a2675b853a1d8e6f
-| Author: Bartek Daniluk <bartekx55@gmail.com>
-| Date:   Mon Nov 7 21:13:58 2022 +0100
-| 
-|     dodano repos.txt
-| 
-* commit c8fc35ef8620e0682bed65ce3c24cb18fbd7363c
-| Author: Bartek Daniluk <bartekx55@gmail.com>
-| Date:   Mon Nov 7 14:01:52 2022 +0100
-| 
-|     Dodane pliki (JD)
-| 
-* commit 70370011ca817b3e11392db7bd6c5afdb167e298
-| Author: Bartek Daniluk <bartekx55@gmail.com>
-| Date:   Mon Nov 7 12:48:21 2022 +0100
-| 
-|     Zmiana (Sara)
-| 
-* commit db871aab0af6e3a9b198ee20ab4c6a27fd9dbf51
-| Author: Bartek Daniluk <bartekx55@gmail.com>
-| Date:   Mon Nov 7 12:41:39 2022 +0100
-| 
-|     Zmiana (Drugi Smajl)
-| 
-* commit 1000b04a7682ed96c2d8a9564531e60bdb5c908d
-| Author: Bartek Daniluk <bartekx55@gmail.com>
-| Date:   Mon Nov 7 12:31:45 2022 +0100
-| 
-|     Pierwszy Commit
-| 
-* commit 105a0be1420243cfd9ef64dc6d09184b78731dee
-  Author: Bartek Daniluk <bartekx55@gmail.com>
-  Date:   Sun Nov 6 20:22:46 2022 +0000
-  
-      Initial commit
diff --git a/mbran.txt b/mbran.txt
index 3111ddc..9bcea25 100644
--- a/mbran.txt
+++ b/mbran.txt
@@ -1,3 +1,7 @@
 DEF
 GHI
-MNO
+<<<<<<< HEAD
+JKL
+=======
+
+>>>>>>> alfa
diff --git a/moneline.txt b/moneline.txt
new file mode 100644
index 0000000..3c1b91a
--- /dev/null
+++ b/moneline.txt
@@ -0,0 +1,20 @@
+77dcdc9 przed merge
+a168d73 aMNO
+8f8c726 JKL
+a937969 mergeGHI
+ea9348f aGHI
+ca99a71 GHI
+feadf1f Merge branch 'alfa'
+0ab5ff7 DEF  na alfa
+148d3f1 mbran
+7e7e4cd Zadanie do wykladu 4. -start
+847eedb Nowy Plik
+eee6a72 dodano merge.txt
+24bdeb6 Ignorowanie
+d996a29 zaktualizowano prepos.txt
+7f25641 dodano repos.txt
+c8fc35e Dodane pliki (JD)
+7037001 Zmiana (Sara)
+db871aa Zmiana (Drugi Smajl)
+1000b04 Pierwszy Commit
+105a0be Initial commit
